{
  "langNames": {
    "ksh": "ripoarisch",
    "mwl": "mirandés",
    "luo": "dholuo",
    "fil": "filipino",
    "nys": "noongar",
    "lus": "mizo",
    "bal": "baločî",
    "mww": "mww",
    "mwv": "behase mentawei",
    "ban": "ᬩᬲᬩᬮᬶ",
    "ksw": "s\u0027gaw kayin",
    "luz": "لئری دوٙمینی",
    "xmf": "მარგალური",
    "fit": "meänkieli",
    "ccp": "changma kodha",
    "bar": "boarisch",
    "bas": "bas",
    "xmm": "bahasa manado",
    "raj": "राजस्थानी",
    "scl": "tshina",
    "sco": "scots",
    "gld": "нани",
    "hne": "छत्तीसगढ़ी",
    "scn": "sicilianu",
    "hnd": "हिन्दको",
    "teo": "ateso",
    "aa": "qafár af",
    "rap": "\u0027arero rapa nui",
    "ab": "аҧсшәа",
    "tet": "tetun",
    "bbc": "hata batak toba",
    "rar": "māori kūki \u0027āirani",
    "af": "afrikaans",
    "glk": "گیلکی",
    "mxt": "mixtec",
    "ak": "akan",
    "bbj": "ghɔmálá’",
    "am": "አማርኛ",
    "an": "aragonés",
    "cdo": "mìng-dĕ̤ng-ngṳ̄",
    "ar": "العربية",
    "as": "অসমীয়া",
    "sdc": "sassaresu",
    "av": "авар",
    "sdh": "کوردی خوارگ",
    "ay": "aymar aru",
    "az": "azərbaycanca",
    "ba": "башҡортса",
    "wls": "faka\u0027uwea",
    "ceb": "cebuano",
    "kum": "къумукъ тил",
    "be": "беларуская",
    "myn": "maya",
    "bg": "български",
    "bh": "भोजपुरी",
    "bi": "bislama",
    "aaf": "aranatan",
    "bcl": "bikol central",
    "bm": "bamanankan",
    "myv": "эрзянь",
    "bn": "বাংলা",
    "bo": "བོད་ཡིག",
    "dgo": "ڈوگرى",
    "br": "brezhoneg",
    "fkv": "kainun",
    "bs": "bosanski",
    "rcf": "kréol réyoné",
    "zh-yue": "粵語",
    "sei": "cmique itom",
    "tgl": "tagalog",
    "map-bms": "basa banyumasan",
    "sel": "sel",
    "ca": "català",
    "vkt": "kutai tenggarong",
    "mzn": "مازِرونی",
    "ses": "koyraboro senni",
    "ce": "нохчийн",
    "ch": "chamoru",
    "kvr": "bahasa kerinci",
    "abl": "bahasa lampung nyo",
    "co": "corsu",
    "cr": "nēhiyawēwin / ᓀᐦᐃᔭᐍᐏᐣ",
    "cs": "čeština",
    "abq": "абаза",
    "cu": "словѣньскъ / ⱄⰾⱁⰲⱑⱀⱐⱄⰽⱏ",
    "yrl": "nheengatu",
    "cv": "чӑвашла",
    "yrk": "ненэцяʼ вада",
    "abv": "العربية البحرانية",
    "cy": "cymraeg",
    "vls": "west-vlams",
    "da": "dansk",
    "de": "deutsch",
    "goh": "althochdeutsch",
    "ace": "acèh",
    "ady-cyrl": "адыгабзэ",
    "gom": "konkani (amchi bhas)",
    "iso": "isoko",
    "acf": "kwéyòl",
    "ach": "lwo",
    "din": "dinka",
    "gor": "bahasa hulonthalo",
    "ist": "gallesanese",
    "diq": "zazaki",
    "got": "𐌲𐌿𐍄𐌹𐍃𐌺",
    "sgc": "kipsikii",
    "vmf": "oschdfräqgisch",
    "dv": "ދިވެހިބަސް",
    "pad": "paumarí",
    "zun": "shiwi\u0027ma",
    "bew": "bahasa betawi",
    "sgh": "хуг̌ну̊н зив",
    "dz": "ཇོང་ཁ",
    "rej": "baso hejang",
    "pag": "pangasinan",
    "tin": "идараб мицци",
    "pam": "kapampangan",
    "pap": "papiamentu",
    "ada": "adangme",
    "kxk": "zayen karen",
    "ee": "eʋegbe",
    "itl": "итэнмэн",
    "adh": "jopadhola",
    "chi": "chin",
    "el": "ελληνικά",
    "chn": "chinuk wawa",
    "en": "english",
    "eo": "esperanto",
    "cho": "choctaw",
    "chr": "ᏣᎳᎩ",
    "bfq": "படக பாஷை",
    "lzz": "ლაზური;lazuri",
    "es": "español",
    "et": "eesti",
    "eu": "euskara",
    "bft": "སྦལ་འཐུས་",
    "tji": "bifzivsar",
    "chy": "tsetsêhestâhese",
    "shi": "tacelḥit",
    "hsb": "hornjoserbsce",
    "ady": "адыгабзэ",
    "shn": "lìk tái",
    "fa": "فارسی",
    "aeb": "tounsi",
    "ff": "fulfulde",
    "uz-latn": "oʻzbekcha",
    "hsn": "湘语",
    "fi": "suomi",
    "fj": "na vosa vakaviti",
    "yua": "maaya t\u0027aan",
    "eml": "emiliàn e rumagnòl",
    "cim": "zimbrisch",
    "bgn": "رخشانی",
    "fo": "føroyskt",
    "fr": "français",
    "pcd": "picard",
    "pcc": "bùyī yǔ",
    "fy": "frysk",
    "tkl": "tokelau",
    "xsr": "ཤེརཔཱ",
    "rgn": "rumagnôl",
    "grc": "ἑλληνικὴ γλῶττα",
    "ga": "gaeilge",
    "tkr": "цiаьхна миз",
    "vot": "vađđa ceeli",
    "pcm": "naija",
    "enf": "онэй базаан",
    "gd": "gàidhlig",
    "bhb": "भीली",
    "yux": "одул",
    "dlg": "дулҕан",
    "kzp": "äparu keidupa",
    "dlm": "viklasun",
    "gl": "galego",
    "enm": "englisce",
    "gn": "avañe\u0027ẽ",
    "wra": "basa wringinanom",
    "sjd": "кӣллт са̄мь кӣлл",
    "cjs": "шор тили",
    "gu": "ગુજરાતી",
    "pdc": "deitsch",
    "gv": "gaelg",
    "bhw": "wós vyak",
    "unm": "lënapei lixsëwakàn",
    "sjn": "edhellen",
    "ha": "hausa",
    "sjo": "sibe",
    "ckb": "کوردیی ناوەندی",
    "hug": "wacipaire",
    "sjt": "saa´mekiill",
    "he": "עברית",
    "tly": "tolışə",
    "hi": "हिन्दी",
    "pdt": "plautdietsch",
    "bin": "ẹ̀dó",
    "ho": "hiri motu",
    "hus": "tenek",
    "hr": "hrvatski",
    "zyj": "zyj",
    "ht": "kreyòl ayisyen",
    "hu": "magyar",
    "ckt": "ԓыгъоравэтԓьэн йиԓыйиԓ",
    "rif": "tarifit",
    "ckv": "kbaran",
    "hy": "հայերեն",
    "skh": "bahasa sikule",
    "hz": "otjiherero",
    "agx": "агъул",
    "nah": "nāhuatl",
    "frc": "français cadjin",
    "ia": "interlingua",
    "nan": "bân-lâm-gú",
    "id": "bahasa indonesia",
    "skr": "سرائیکی",
    "ie": "interlingue",
    "nap": "napulitano",
    "dng": "хуэйзў йүян",
    "ig": "igbo",
    "naq": "khoekhoegowab",
    "ii": "ꆇꉙ",
    "ik": "iñupiak",
    "fro": "franceis",
    "frp": "arpetan",
    "io": "ido",
    "bjn": "bahasa banjar",
    "frr": "nordfriisk",
    "is": "íslenska",
    "it": "italiano",
    "iu": "ᐃᓄᒃᑎᑐᑦ/inuktitut",
    "clw": "ӧс тили",
    "sli": "schläsch",
    "guc": "wayuunaiki",
    "ja": "日本語",
    "pfl": "pälzisch",
    "slr": "salırça",
    "cmn": "guānhuà",
    "gur": "gur",
    "sma": "åarjelsaemien",
    "ain": "aynu itak",
    "jv": "basa jawa",
    "rkh": "rakahanga-manihiki",
    "mad": "bhesa medura",
    "rki": "rki",
    "mai": "मैथिली",
    "nci": "nāwaλahtōlλi",
    "ka": "ქართული",
    "wuu": "吴语",
    "izh": "ižoran keel",
    "mak": "basa mangkasara\u0027",
    "mam": "mam",
    "kg": "kongo",
    "cnh": "lai pawi",
    "tox": "ramarih hatohobei",
    "ki": "gĩkũyũ",
    "kj": "kuanyama",
    "kk": "қазақша",
    "kl": "kalaallisut",
    "km": "ភាសាខ្មែរ",
    "gvr": "तमु क्यी",
    "kn": "ಕನ್ನಡ",
    "ko": "한국어",
    "nds-nl": "nedersaksies",
    "max": "bahasa hari-hari",
    "ajp": "لهجات شامية",
    "kr": "kaanuri",
    "maz": "jñatrjo",
    "ks": "कॉशुर / کٲشُر",
    "ku": "kurdî",
    "kv": "коми",
    "kw": "kernowek",
    "tpi": "tok pisin",
    "ky": "кыргызча",
    "tpn": "tupi",
    "la": "latina",
    "lb": "lëtzebuergesch",
    "ese": "tiatinagua",
    "lg": "luganda",
    "phr": "پوٹھواری",
    "nds": "plattdüütsch",
    "li": "limburgs",
    "fur": "furlan",
    "ln": "lingála",
    "lo": "ລາວ",
    "ess": "yupik",
    "cop": "μετ ρεμενκημι",
    "esu": "yugtun",
    "lt": "lietuvių",
    "lv": "latviešu",
    "oge": "ენაჲ ქართული",
    "lad": "ladino",
    "pih": "norfuk / pitkern",
    "akz": "albaamo innaaɬiilka",
    "roa-tara": "tarandíne",
    "fiu-vro": "võro",
    "sou": "ภาษาไทยใต้",
    "mg": "malagasy",
    "mh": "mahjet",
    "pis": "pijin blo\u0027solomon",
    "mi": "māori",
    "mk": "македонски",
    "ml": "മലയാളം",
    "rmy": "romani",
    "mn": "монгол",
    "new": "नेपाल भाषा",
    "wxa": "瓦乡话",
    "mo": "молдовеняскэ",
    "aln": "gegnisht",
    "mr": "मराठी",
    "ms": "bahasa melayu",
    "alr": "nəməlʔu",
    "mt": "malti",
    "cps": "capiceño",
    "alt": "алтай тили",
    "als": "alemannisch",
    "cpx": "莆仙語",
    "my": "မြန်မာဘာသာ",
    "lbe": "лакку",
    "mdf": "мокшень",
    "dsb": "dolnoserbski",
    "na": "dorerin naoero",
    "trp": "kokborok (tripuri)",
    "nd": "isindebele",
    "ne": "नेपाली",
    "ng": "owambo",
    "mdr": "mandharsche",
    "ami": "pangcah",
    "nl": "nederlands",
    "nn": "norsk nynorsk",
    "no": "norsk bokmål",
    "lbx": "lawangan",
    "nr": "nrebele",
    "tsd": "τσακώνικα γρούσσα",
    "amr": "amarakaeri",
    "nv": "diné bizaad",
    "tsg": "bahasa sūg",
    "kaa": "qaraqalpaqsha",
    "wym": "wymysöryś",
    "ny": "chi-chewa",
    "kac": "kachin",
    "uum": "урум дили",
    "kab": "taqbaylit",
    "uun": "噶哈巫語)",
    "oc": "occitan",
    "pkp": "pukapuka",
    "eve": "эвэды торэн",
    "pko": "pökoot",
    "tsu": "tsou",
    "crh": "qırımtatarca",
    "ang": "ænglisc",
    "evn": "эвэды̄ турэ̄н",
    "meu": "pure motu",
    "om": "oromoo",
    "crp": "krioyo karibe",
    "dtp": "boros dusun",
    "anp": "अंगिका",
    "or": "ଓଡ଼ିଆ",
    "os": "ирон",
    "ojb": "ojibwe",
    "dty": "डोटेली",
    "mfb": "mfb",
    "mfa": "جاوی",
    "bpy": "বিষ্ণুপ্রিয়া মণিপুরী",
    "kbd": "адыгэбзэ",
    "mfe": "morisyen",
    "srn": "sranantongo",
    "pa": "ਪੰਜਾਬੀ",
    "srr": "seereer-siin",
    "tts": "ภาษาอีสาน",
    "csb": "kaszëbsczi",
    "nhn": "nauatlajtoli",
    "ttt": "تاتی",
    "pls": "პოლისაკართ",
    "kbp": "kabiyè",
    "pi": "पालि",
    "bqi": "بختیاری",
    "pl": "polski",
    "dun": "dusun deyah",
    "ewo": "ewo",
    "dum": "dietsch",
    "mfy": "yoreme",
    "ps": "پښتو",
    "pt": "português",
    "nia": "bahasa nias",
    "ssf": "thao (邵語)",
    "kca": "хӑнты ясӑӈ",
    "tum": "chitumbuka",
    "nij": "ngaju",
    "kck": "ikalanga",
    "apc": "لهجات شامية",
    "nio": "ня’",
    "pms": "piemontèis",
    "jam": "jumiekan kriol",
    "brh": "براوی",
    "niv": "нивхгу диф",
    "niu": "ko e vagahau niuē",
    "pmy": "babasah papua",
    "ext": "estremeñu",
    "lez": "лезги чlал",
    "jax": "jax",
    "cts": "pandan bikol",
    "zai": "diidxazá",
    "qu": "runa simi",
    "pnb": "پنجابی",
    "brx": "बड़ो",
    "tvl": "ngangana tuvalu",
    "stq": "seeltersk",
    "njo": "ao",
    "olo": "livvinkarjala kieli",
    "jbo": "lojban",
    "mhr": "олык марий",
    "pnt": "ποντιακά",
    "kdr": "karay dili",
    "pny": "pīn`yīn",
    "rm": "rumantsch",
    "bsk": "buruɕaski",
    "rn": "kirundi",
    "ro": "română",
    "mhy": "ma\u0027anyan",
    "ru": "русский",
    "bss": "bss",
    "rw": "kinyarwanda",
    "kea": "kabuverdianu",
    "sa": "संस्कृतम्",
    "sc": "sardu",
    "sd": "سنڌي",
    "se": "sámegiella",
    "arc": "ܐܪܡܝܐ",
    "min": "baso minangkabau",
    "btd": "batak pakpak",
    "sg": "sängö",
    "miq": "miskitu",
    "sh": "srpskohrvatski / српскохрватски",
    "si": "සිංහල",
    "sk": "slovenčina",
    "roa-rup": "armãneashti",
    "sl": "slovenščina",
    "sm": "gagana samoa",
    "btm": "hata mandailing",
    "jct": "kırımçakça",
    "sn": "chishona",
    "iar": "iar",
    "ket": "остыганна ка’",
    "bto": "iriga bicolano",
    "so": "soomaaliga",
    "arn": "mapudungun",
    "kev": "கன்னித்தமிழ்",
    "sq": "shqip",
    "sr": "српски / srpski",
    "aro": "𐤏𐤓𐤊𐤍𐤆𐤉𐤀 𐤀𐤒𐤏𐤀𐤍𐤀",
    "ss": "siswati",
    "bts": "sahap simalungun",
    "yai": "yaɣnobī́ zivók",
    "st": "sesotho",
    "arq": "جازايريه",
    "su": "basa sunda",
    "sv": "svenska",
    "sw": "kiswahili",
    "btx": "cakap karo",
    "arz": "مصرى",
    "ibb": "ibibio",
    "yaq": "yaq",
    "ary": "الدّارجة المغربية",
    "btz": "batak alas",
    "iba": "jako iban",
    "rtm": "faeag rotuma",
    "ta": "தமிழ்",
    "ppl": "nawat",
    "te": "తెలుగు",
    "ase": "american sign language",
    "tg": "тоҷикӣ",
    "th": "ไทย",
    "bug": "ᨅᨔ ᨕᨘᨁᨗ",
    "ti": "ትግርኛ",
    "kfr": "કચ્છી",
    "tk": "türkmençe",
    "tl": "tagalog",
    "lhu": "lahu",
    "tn": "setswana",
    "to": "lea faka-tonga",
    "bum": "bulu-bene",
    "jdt": "жугьури",
    "tr": "türkçe",
    "ts": "xitsonga",
    "kfy": "कुमाँऊनी",
    "tt": "татарча/tatarça",
    "dyu": "julakan",
    "swg": "swabia (germany)",
    "ast": "asturianu",
    "rue": "русиньскый",
    "tw": "twi",
    "ty": "reo tahiti",
    "ood": "ood",
    "kge": "bahasa komering",
    "lif": "ᤕᤰᤌᤢᤱ ᤐᤠᤴ",
    "hac": "\u0027owrami",
    "lij": "ligure",
    "ruq": "βλαεστε",
    "tyv": "тыва дыл",
    "rut": "мыхiабишды чiел",
    "ug": "ئۇيغۇرچە / uyghurche",
    "hak": "客家語/hak-kâ-ngî",
    "kgp": "kaingáng",
    "uk": "українська",
    "zea": "zeêuws",
    "liv": "līvõ",
    "ur": "اردو",
    "haw": "hawai`i",
    "haz": "آزرگی",
    "xal": "хальмг",
    "atv": "алтай тил",
    "tzh": "bats\u0027i k\u0027op",
    "prg": "prūsiskan",
    "uz": "oʻzbekcha/ўзбекча",
    "kha": "khasi",
    "tzm": "ⵜⴰⵎⴰⵣⵉⵖⵜ",
    "ve": "tshivenda",
    "prs": "دری",
    "vi": "tiếng việt",
    "ljp": "bahasa lampung api",
    "vo": "volapük",
    "khw": "کھوار",
    "nod": "กำเมือง",
    "qug": "kichwa",
    "pse": "bahasa melayu tengah",
    "gaa": "gã",
    "nog": "ногай тили",
    "wa": "walon",
    "aeb-arab": "تونسي",
    "gag": "gagauz",
    "non": "norrœnt",
    "nov": "novial",
    "lkt": "lakȟótiyapi",
    "gan": "贛語",
    "kiu": "zazakiyê zımey",
    "wo": "wolof",
    "bxr": "буряад",
    "gay": "basa gayo",
    "mnc": "span\u0026gt;",
    "szl": "ślůnski",
    "lld": "ladin",
    "kjh": "хакас",
    "war": "winaray",
    "mni": "মৈতৈ",
    "qvm": "runa shimi",
    "awa": "अवधी",
    "kjj": "каьтш мицӏ",
    "mnk": "mandi\u0027nka kango",
    "mnp": "閩北語",
    "qvs": "qiv\u0027vorin",
    "xh": "isixhosa",
    "orv": "рѹсскій",
    "gbm": "garhwali",
    "mns": "моаньсь",
    "mnw": "ဘာသာ မန်",
    "cbk-zam": "chavacano de zamboanga",
    "pua": "p\u0027urhépecha",
    "wbl": "x̌ik zik",
    "moh": "kanien’kéha",
    "gcf": "kréyòl gwadloupéyen",
    "bzd": "bribri",
    "lmo": "lumbaart",
    "pus": "pax̌to",
    "ryu": "沖縄口",
    "yi": "ייִדיש",
    "osx": "sahsisk",
    "yo": "yorùbá",
    "fax": "fala",
    "ota": "لسان عثمانى",
    "klb": "kiliwa",
    "ote": "ñhähñu",
    "gom-deva": "गोवा कोंकणी",
    "za": "vahcuengh",
    "otk": "turki",
    "nrm": "nouormand",
    "nrn": "norn",
    "qxq": "qaşqay dili",
    "zh": "中文",
    "kls": "kalasha-mun",
    "ayl": "ليبي",
    "ayn": "صنعاني",
    "zh-min-nan": "bân-lâm-gú",
    "zu": "isizulu",
    "mqg": "behesa kutai hulu",
    "azb": "تورکجه",
    "uz-cyrl": "ўзбекча",
    "nso": "sesotho sa leboa",
    "aeb-latn": "tûnsî",
    "kmr": "kurmancî",
    "loz": "silozi",
    "kmz": "turki khorasani",
    "mrj": "кырык мары",
    "zh-tw": "中文（台灣）‎",
    "mrv": "mangareva",
    "mrw": "maranao",
    "hif": "fiji hindi",
    "koi": "перем коми",
    "num": "niuafo\u0027ou",
    "simple": "simple english",
    "hil": "hiligaynon",
    "dag": "dagbanli",
    "dar": "дарган",
    "tab": "табасаран чiал",
    "vec": "vèneto",
    "lrc": "luri",
    "taj": "तामाङ",
    "vep": "vepsän kel’",
    "tar": "rarámuri",
    "ili": "ili turki",
    "ilo": "ilokano",
    "zh-classical": "文言",
    "bat-smg": "žemaitėška",
    "kpy": "нымылан",
    "udi": "удин муз",
    "udm": "удмурт",
    "mui": "bahasa musi",
    "mus": "mvskoke",
    "be-x-old": "беларуская (тарашкевіца)‎",
    "gil": "taetae ni kiribati",
    "cak": "kaqchikel ch\u0027ab\u0027äl",
    "zom": "zom",
    "sah": "саха тыла",
    "mvf": "span\u0026gt;",
    "krc": "къарачай-малкъар",
    "ltg": "latgaļu",
    "inh": "гіалгіай",
    "krj": "kinaray-a",
    "kri": "krio",
    "krl": "karjalan kieli",
    "tcs": "yumplatok",
    "ddg": "fataluku",
    "sat": "hor",
    "tcy": "ತುಳು",
    "saz": "ચૌરાષ્ટિરમ્",
    "ksf": "ksf"
  },
  "wikiTypes": {
    "ksh": "REGULAR",
    "mwl": "REGULAR",
    "luo": "INCUBATOR",
    "fil": "INCUBATOR",
    "nys": "INCUBATOR",
    "lus": "INCUBATOR",
    "bal": "INCUBATOR",
    "mww": "INCUBATOR",
    "mwv": "INCUBATOR",
    "ban": "INCUBATOR",
    "ksw": "INCUBATOR",
    "luz": "REGULAR",
    "xmf": "REGULAR",
    "fit": "INCUBATOR",
    "ccp": "INCUBATOR",
    "bar": "REGULAR",
    "bas": "INCUBATOR",
    "xmm": "INCUBATOR",
    "raj": "INCUBATOR",
    "scl": "INCUBATOR",
    "sco": "REGULAR",
    "gld": "INCUBATOR",
    "hne": "INCUBATOR",
    "scn": "REGULAR",
    "hnd": "INCUBATOR",
    "teo": "INCUBATOR",
    "aa": "INCUBATOR",
    "rap": "INCUBATOR",
    "ab": "REGULAR",
    "tet": "REGULAR",
    "bbc": "INCUBATOR",
    "rar": "INCUBATOR",
    "af": "REGULAR",
    "glk": "REGULAR",
    "mxt": "INCUBATOR",
    "ak": "REGULAR",
    "bbj": "INCUBATOR",
    "am": "REGULAR",
    "an": "REGULAR",
    "cdo": "REGULAR",
    "ar": "REGULAR",
    "as": "REGULAR",
    "sdc": "INCUBATOR",
    "av": "REGULAR",
    "sdh": "INCUBATOR",
    "ay": "REGULAR",
    "az": "REGULAR",
    "ba": "REGULAR",
    "wls": "INCUBATOR",
    "ceb": "REGULAR",
    "kum": "INCUBATOR",
    "be": "REGULAR",
    "myn": "INCUBATOR",
    "bg": "REGULAR",
    "bh": "REGULAR",
    "bi": "REGULAR",
    "aaf": "INCUBATOR",
    "bcl": "REGULAR",
    "bm": "REGULAR",
    "myv": "REGULAR",
    "bn": "REGULAR",
    "bo": "REGULAR",
    "dgo": "INCUBATOR",
    "br": "REGULAR",
    "fkv": "INCUBATOR",
    "bs": "REGULAR",
    "rcf": "INCUBATOR",
    "zh-yue": "REGULAR",
    "sei": "INCUBATOR",
    "tgl": "INCUBATOR",
    "map-bms": "REGULAR",
    "sel": "INCUBATOR",
    "ca": "REGULAR",
    "vkt": "INCUBATOR",
    "mzn": "REGULAR",
    "ses": "REGULAR",
    "ce": "REGULAR",
    "ch": "REGULAR",
    "kvr": "INCUBATOR",
    "abl": "INCUBATOR",
    "co": "REGULAR",
    "cr": "REGULAR",
    "cs": "REGULAR",
    "abq": "INCUBATOR",
    "cu": "REGULAR",
    "yrl": "INCUBATOR",
    "cv": "REGULAR",
    "yrk": "INCUBATOR",
    "abv": "INCUBATOR",
    "cy": "REGULAR",
    "vls": "REGULAR",
    "da": "REGULAR",
    "de": "REGULAR",
    "goh": "INCUBATOR",
    "ace": "REGULAR",
    "ady-cyrl": "REGULAR",
    "gom": "INCUBATOR",
    "iso": "INCUBATOR",
    "acf": "INCUBATOR",
    "ach": "INCUBATOR",
    "din": "REGULAR",
    "gor": "INCUBATOR",
    "ist": "INCUBATOR",
    "diq": "REGULAR",
    "got": "REGULAR",
    "sgc": "INCUBATOR",
    "vmf": "INCUBATOR",
    "dv": "REGULAR",
    "pad": "INCUBATOR",
    "zun": "INCUBATOR",
    "bew": "INCUBATOR",
    "sgh": "INCUBATOR",
    "dz": "REGULAR",
    "rej": "INCUBATOR",
    "pag": "REGULAR",
    "tin": "INCUBATOR",
    "pam": "REGULAR",
    "pap": "REGULAR",
    "ada": "INCUBATOR",
    "kxk": "INCUBATOR",
    "ee": "REGULAR",
    "itl": "INCUBATOR",
    "adh": "INCUBATOR",
    "chi": "INCUBATOR",
    "el": "REGULAR",
    "chn": "INCUBATOR",
    "en": "REGULAR",
    "eo": "REGULAR",
    "cho": "INCUBATOR",
    "chr": "REGULAR",
    "bfq": "INCUBATOR",
    "lzz": "INCUBATOR",
    "es": "REGULAR",
    "et": "REGULAR",
    "eu": "REGULAR",
    "bft": "INCUBATOR",
    "tji": "INCUBATOR",
    "chy": "REGULAR",
    "shi": "INCUBATOR",
    "hsb": "REGULAR",
    "ady": "INCUBATOR",
    "shn": "INCUBATOR",
    "fa": "REGULAR",
    "aeb": "INCUBATOR",
    "ff": "REGULAR",
    "uz-latn": "REGULAR",
    "hsn": "INCUBATOR",
    "fi": "REGULAR",
    "fj": "REGULAR",
    "yua": "INCUBATOR",
    "eml": "REGULAR",
    "cim": "INCUBATOR",
    "bgn": "INCUBATOR",
    "fo": "REGULAR",
    "fr": "REGULAR",
    "pcd": "REGULAR",
    "pcc": "INCUBATOR",
    "fy": "REGULAR",
    "tkl": "INCUBATOR",
    "xsr": "INCUBATOR",
    "rgn": "INCUBATOR",
    "grc": "INCUBATOR",
    "ga": "REGULAR",
    "tkr": "INCUBATOR",
    "vot": "INCUBATOR",
    "pcm": "INCUBATOR",
    "enf": "INCUBATOR",
    "gd": "REGULAR",
    "bhb": "INCUBATOR",
    "yux": "INCUBATOR",
    "dlg": "INCUBATOR",
    "kzp": "INCUBATOR",
    "dlm": "INCUBATOR",
    "gl": "REGULAR",
    "enm": "INCUBATOR",
    "gn": "REGULAR",
    "wra": "INCUBATOR",
    "sjd": "INCUBATOR",
    "cjs": "INCUBATOR",
    "gu": "REGULAR",
    "pdc": "REGULAR",
    "gv": "REGULAR",
    "bhw": "INCUBATOR",
    "unm": "INCUBATOR",
    "sjn": "INCUBATOR",
    "ha": "REGULAR",
    "sjo": "INCUBATOR",
    "ckb": "REGULAR",
    "hug": "INCUBATOR",
    "sjt": "INCUBATOR",
    "he": "REGULAR",
    "tly": "INCUBATOR",
    "hi": "REGULAR",
    "pdt": "INCUBATOR",
    "bin": "INCUBATOR",
    "ho": "INCUBATOR",
    "hus": "INCUBATOR",
    "hr": "REGULAR",
    "zyj": "INCUBATOR",
    "ht": "REGULAR",
    "hu": "REGULAR",
    "ckt": "INCUBATOR",
    "rif": "INCUBATOR",
    "ckv": "INCUBATOR",
    "hy": "REGULAR",
    "skh": "INCUBATOR",
    "hz": "INCUBATOR",
    "agx": "INCUBATOR",
    "nah": "REGULAR",
    "frc": "INCUBATOR",
    "ia": "REGULAR",
    "nan": "REGULAR",
    "id": "REGULAR",
    "skr": "INCUBATOR",
    "ie": "REGULAR",
    "nap": "REGULAR",
    "dng": "INCUBATOR",
    "ig": "REGULAR",
    "naq": "INCUBATOR",
    "ii": "INCUBATOR",
    "ik": "REGULAR",
    "fro": "INCUBATOR",
    "frp": "REGULAR",
    "io": "REGULAR",
    "bjn": "REGULAR",
    "frr": "REGULAR",
    "is": "REGULAR",
    "it": "REGULAR",
    "iu": "REGULAR",
    "clw": "INCUBATOR",
    "sli": "INCUBATOR",
    "guc": "INCUBATOR",
    "ja": "REGULAR",
    "pfl": "REGULAR",
    "slr": "INCUBATOR",
    "cmn": "INCUBATOR",
    "gur": "INCUBATOR",
    "sma": "INCUBATOR",
    "ain": "INCUBATOR",
    "jv": "REGULAR",
    "rkh": "INCUBATOR",
    "mad": "INCUBATOR",
    "rki": "INCUBATOR",
    "mai": "INCUBATOR",
    "nci": "INCUBATOR",
    "ka": "REGULAR",
    "wuu": "REGULAR",
    "izh": "INCUBATOR",
    "mak": "INCUBATOR",
    "mam": "INCUBATOR",
    "kg": "REGULAR",
    "cnh": "INCUBATOR",
    "tox": "INCUBATOR",
    "ki": "REGULAR",
    "kj": "INCUBATOR",
    "kk": "REGULAR",
    "kl": "REGULAR",
    "km": "REGULAR",
    "gvr": "INCUBATOR",
    "kn": "REGULAR",
    "ko": "REGULAR",
    "nds-nl": "REGULAR",
    "max": "INCUBATOR",
    "ajp": "INCUBATOR",
    "kr": "INCUBATOR",
    "maz": "INCUBATOR",
    "ks": "REGULAR",
    "ku": "REGULAR",
    "kv": "REGULAR",
    "kw": "REGULAR",
    "tpi": "REGULAR",
    "ky": "REGULAR",
    "tpn": "INCUBATOR",
    "la": "REGULAR",
    "lb": "REGULAR",
    "ese": "INCUBATOR",
    "lg": "REGULAR",
    "phr": "INCUBATOR",
    "nds": "REGULAR",
    "li": "REGULAR",
    "fur": "REGULAR",
    "ln": "REGULAR",
    "lo": "REGULAR",
    "ess": "INCUBATOR",
    "cop": "INCUBATOR",
    "esu": "INCUBATOR",
    "lt": "REGULAR",
    "lv": "REGULAR",
    "oge": "INCUBATOR",
    "lad": "REGULAR",
    "pih": "REGULAR",
    "akz": "INCUBATOR",
    "roa-tara": "REGULAR",
    "fiu-vro": "REGULAR",
    "sou": "INCUBATOR",
    "mg": "REGULAR",
    "mh": "INCUBATOR",
    "pis": "INCUBATOR",
    "mi": "REGULAR",
    "mk": "REGULAR",
    "ml": "REGULAR",
    "rmy": "REGULAR",
    "mn": "REGULAR",
    "new": "REGULAR",
    "wxa": "INCUBATOR",
    "mo": "REGULAR",
    "aln": "INCUBATOR",
    "mr": "REGULAR",
    "ms": "REGULAR",
    "alr": "INCUBATOR",
    "mt": "REGULAR",
    "cps": "INCUBATOR",
    "alt": "INCUBATOR",
    "als": "REGULAR",
    "cpx": "INCUBATOR",
    "my": "REGULAR",
    "lbe": "REGULAR",
    "mdf": "REGULAR",
    "dsb": "REGULAR",
    "na": "REGULAR",
    "trp": "INCUBATOR",
    "nb": "REGULAR",
    "nd": "INCUBATOR",
    "ne": "REGULAR",
    "ng": "INCUBATOR",
    "mdr": "INCUBATOR",
    "ami": "INCUBATOR",
    "nl": "REGULAR",
    "nn": "REGULAR",
    "no": "REGULAR",
    "lbx": "INCUBATOR",
    "nr": "INCUBATOR",
    "tsd": "INCUBATOR",
    "amr": "INCUBATOR",
    "nv": "REGULAR",
    "tsg": "INCUBATOR",
    "kaa": "REGULAR",
    "wym": "INCUBATOR",
    "ny": "REGULAR",
    "kac": "INCUBATOR",
    "uum": "INCUBATOR",
    "kab": "REGULAR",
    "uun": "INCUBATOR",
    "oc": "REGULAR",
    "pkp": "INCUBATOR",
    "eve": "INCUBATOR",
    "pko": "INCUBATOR",
    "tsu": "INCUBATOR",
    "crh": "REGULAR",
    "ang": "REGULAR",
    "evn": "INCUBATOR",
    "meu": "INCUBATOR",
    "om": "REGULAR",
    "crp": "INCUBATOR",
    "dtp": "INCUBATOR",
    "anp": "INCUBATOR",
    "or": "REGULAR",
    "os": "REGULAR",
    "ojb": "INCUBATOR",
    "dty": "INCUBATOR",
    "mfb": "INCUBATOR",
    "mfa": "INCUBATOR",
    "bpy": "REGULAR",
    "kbd": "INCUBATOR",
    "mfe": "INCUBATOR",
    "srn": "REGULAR",
    "pa": "REGULAR",
    "srr": "INCUBATOR",
    "tts": "INCUBATOR",
    "csb": "REGULAR",
    "nhn": "INCUBATOR",
    "ttt": "INCUBATOR",
    "pls": "INCUBATOR",
    "kbp": "INCUBATOR",
    "pi": "REGULAR",
    "bqi": "INCUBATOR",
    "pl": "REGULAR",
    "dun": "INCUBATOR",
    "ewo": "INCUBATOR",
    "dum": "INCUBATOR",
    "mfy": "INCUBATOR",
    "ps": "REGULAR",
    "pt": "REGULAR",
    "nia": "INCUBATOR",
    "ssf": "INCUBATOR",
    "kca": "INCUBATOR",
    "tum": "REGULAR",
    "nij": "INCUBATOR",
    "kck": "INCUBATOR",
    "apc": "INCUBATOR",
    "nio": "INCUBATOR",
    "pms": "REGULAR",
    "jam": "INCUBATOR",
    "brh": "INCUBATOR",
    "niv": "INCUBATOR",
    "niu": "INCUBATOR",
    "pmy": "INCUBATOR",
    "ext": "REGULAR",
    "lez": "INCUBATOR",
    "jax": "INCUBATOR",
    "cts": "INCUBATOR",
    "zai": "INCUBATOR",
    "qu": "REGULAR",
    "pnb": "REGULAR",
    "brx": "INCUBATOR",
    "tvl": "INCUBATOR",
    "stq": "REGULAR",
    "njo": "INCUBATOR",
    "olo": "INCUBATOR",
    "jbo": "REGULAR",
    "mhr": "REGULAR",
    "pnt": "REGULAR",
    "kdr": "INCUBATOR",
    "pny": "INCUBATOR",
    "rm": "REGULAR",
    "bsk": "INCUBATOR",
    "rn": "REGULAR",
    "ro": "REGULAR",
    "mhy": "INCUBATOR",
    "ru": "REGULAR",
    "bss": "INCUBATOR",
    "rw": "REGULAR",
    "kea": "INCUBATOR",
    "sa": "REGULAR",
    "sc": "REGULAR",
    "sd": "REGULAR",
    "se": "REGULAR",
    "arc": "REGULAR",
    "min": "REGULAR",
    "btd": "INCUBATOR",
    "sg": "REGULAR",
    "miq": "INCUBATOR",
    "sh": "REGULAR",
    "si": "REGULAR",
    "sk": "REGULAR",
    "roa-rup": "REGULAR",
    "sl": "REGULAR",
    "sm": "REGULAR",
    "btm": "INCUBATOR",
    "jct": "INCUBATOR",
    "sn": "REGULAR",
    "iar": "INCUBATOR",
    "ket": "INCUBATOR",
    "bto": "INCUBATOR",
    "so": "REGULAR",
    "arn": "INCUBATOR",
    "kev": "INCUBATOR",
    "sq": "REGULAR",
    "sr": "REGULAR",
    "aro": "INCUBATOR",
    "ss": "REGULAR",
    "bts": "INCUBATOR",
    "yai": "INCUBATOR",
    "st": "REGULAR",
    "arq": "INCUBATOR",
    "su": "REGULAR",
    "sv": "REGULAR",
    "sw": "REGULAR",
    "btx": "INCUBATOR",
    "arz": "REGULAR",
    "ibb": "INCUBATOR",
    "yaq": "INCUBATOR",
    "ary": "INCUBATOR",
    "btz": "INCUBATOR",
    "iba": "INCUBATOR",
    "rtm": "INCUBATOR",
    "ta": "REGULAR",
    "ppl": "INCUBATOR",
    "te": "REGULAR",
    "ase": "REGULAR",
    "tg": "REGULAR",
    "th": "REGULAR",
    "bug": "REGULAR",
    "ti": "REGULAR",
    "kfr": "INCUBATOR",
    "tk": "REGULAR",
    "tl": "REGULAR",
    "lhu": "INCUBATOR",
    "tn": "REGULAR",
    "to": "REGULAR",
    "bum": "INCUBATOR",
    "jdt": "INCUBATOR",
    "tr": "REGULAR",
    "ts": "REGULAR",
    "kfy": "INCUBATOR",
    "tt": "REGULAR",
    "dyu": "INCUBATOR",
    "swg": "INCUBATOR",
    "ast": "REGULAR",
    "rue": "REGULAR",
    "tw": "REGULAR",
    "ty": "REGULAR",
    "ood": "INCUBATOR",
    "kge": "INCUBATOR",
    "lif": "INCUBATOR",
    "hac": "INCUBATOR",
    "lij": "REGULAR",
    "ruq": "INCUBATOR",
    "tyv": "INCUBATOR",
    "rut": "INCUBATOR",
    "ug": "REGULAR",
    "hak": "REGULAR",
    "kgp": "INCUBATOR",
    "uk": "REGULAR",
    "zea": "REGULAR",
    "liv": "INCUBATOR",
    "ur": "REGULAR",
    "haw": "REGULAR",
    "haz": "INCUBATOR",
    "xal": "REGULAR",
    "atv": "INCUBATOR",
    "tzh": "INCUBATOR",
    "prg": "INCUBATOR",
    "uz": "REGULAR",
    "kha": "INCUBATOR",
    "tzm": "INCUBATOR",
    "ve": "REGULAR",
    "prs": "INCUBATOR",
    "vi": "REGULAR",
    "ljp": "INCUBATOR",
    "vo": "REGULAR",
    "khw": "INCUBATOR",
    "nod": "INCUBATOR",
    "qug": "INCUBATOR",
    "pse": "INCUBATOR",
    "gaa": "INCUBATOR",
    "nog": "INCUBATOR",
    "wa": "REGULAR",
    "aeb-arab": "REGULAR",
    "gag": "REGULAR",
    "non": "INCUBATOR",
    "nov": "REGULAR",
    "lkt": "INCUBATOR",
    "gan": "REGULAR",
    "kiu": "INCUBATOR",
    "wo": "REGULAR",
    "bxr": "REGULAR",
    "gay": "INCUBATOR",
    "mnc": "INCUBATOR",
    "szl": "REGULAR",
    "lld": "INCUBATOR",
    "kjh": "INCUBATOR",
    "war": "REGULAR",
    "mni": "INCUBATOR",
    "qvm": "INCUBATOR",
    "awa": "INCUBATOR",
    "kjj": "INCUBATOR",
    "mnk": "INCUBATOR",
    "mnp": "INCUBATOR",
    "qvs": "INCUBATOR",
    "xh": "REGULAR",
    "orv": "INCUBATOR",
    "gbm": "INCUBATOR",
    "mns": "INCUBATOR",
    "mnw": "INCUBATOR",
    "cbk-zam": "REGULAR",
    "pua": "INCUBATOR",
    "wbl": "INCUBATOR",
    "moh": "INCUBATOR",
    "gcf": "INCUBATOR",
    "bzd": "INCUBATOR",
    "lmo": "REGULAR",
    "pus": "INCUBATOR",
    "ryu": "INCUBATOR",
    "yi": "REGULAR",
    "osx": "INCUBATOR",
    "yo": "REGULAR",
    "fax": "INCUBATOR",
    "ota": "INCUBATOR",
    "klb": "INCUBATOR",
    "ote": "INCUBATOR",
    "gom-deva": "REGULAR",
    "za": "REGULAR",
    "otk": "INCUBATOR",
    "nrm": "REGULAR",
    "nrn": "INCUBATOR",
    "qxq": "INCUBATOR",
    "zh": "REGULAR",
    "kls": "INCUBATOR",
    "ayl": "INCUBATOR",
    "ayn": "INCUBATOR",
    "zh-min-nan": "REGULAR",
    "zu": "REGULAR",
    "mqg": "INCUBATOR",
    "azb": "INCUBATOR",
    "uz-cyrl": "REGULAR",
    "nso": "REGULAR",
    "aeb-latn": "REGULAR",
    "kmr": "INCUBATOR",
    "loz": "INCUBATOR",
    "kmz": "INCUBATOR",
    "mrj": "REGULAR",
    "zh-tw": "REGULAR",
    "mrv": "INCUBATOR",
    "mrw": "INCUBATOR",
    "hif": "REGULAR",
    "koi": "REGULAR",
    "num": "INCUBATOR",
    "simple": "REGULAR",
    "hil": "INCUBATOR",
    "dag": "INCUBATOR",
    "dar": "INCUBATOR",
    "tab": "INCUBATOR",
    "vec": "REGULAR",
    "lrc": "INCUBATOR",
    "taj": "INCUBATOR",
    "vep": "REGULAR",
    "tar": "INCUBATOR",
    "ili": "INCUBATOR",
    "ilo": "REGULAR",
    "zh-classical": "REGULAR",
    "bat-smg": "REGULAR",
    "kpy": "INCUBATOR",
    "udi": "INCUBATOR",
    "udm": "REGULAR",
    "mui": "INCUBATOR",
    "mus": "INCUBATOR",
    "be-x-old": "REGULAR",
    "gil": "INCUBATOR",
    "cak": "INCUBATOR",
    "zom": "INCUBATOR",
    "sah": "REGULAR",
    "mvf": "INCUBATOR",
    "krc": "REGULAR",
    "ltg": "REGULAR",
    "inh": "INCUBATOR",
    "krj": "INCUBATOR",
    "kri": "INCUBATOR",
    "krl": "INCUBATOR",
    "tcs": "INCUBATOR",
    "ddg": "INCUBATOR",
    "sat": "INCUBATOR",
    "tcy": "INCUBATOR",
    "saz": "INCUBATOR",
    "ksf": "INCUBATOR"
  },
  "namespaces": {
    "ru": {
      "TALK": "Обсуждение",
      "TEMPLATE": "Шаблон",
      "WIKIPEDIA_TALK": "Обсуждение Википедии",
      "ARTICLE": "",
      "WIKIPEDIA": "Википедия",
      "HELP_TALK": "Обсуждение справки",
      "FILE": "Файл",
      "HELP": "Справка",
      "USER_TALK": "Обсуждение участника",
      "MEDIAWIKI": "MediaWiki",
      "CATEGORY_TALK": "Обсуждение категории",
      "TEMPLATE_TALK": "Обсуждение шаблона",
      "MEDIAWIKI_TALK": "Обсуждение MediaWiki",
      "FILE_TALK": "Обсуждение файла",
      "USER": "Участник",
      "CATEGORY": "Категория"
    },
    "en": {
      "TALK": "Talk",
      "TEMPLATE": "Template",
      "WIKIPEDIA_TALK": "Wikipedia talk",
      "ARTICLE": "",
      "WIKIPEDIA": "Wikipedia",
      "HELP_TALK": "Help talk",
      "FILE": "File",
      "HELP": "Help",
      "USER_TALK": "User talk",
      "MEDIAWIKI": "MediaWiki",
      "CATEGORY_TALK": "Category talk",
      "TEMPLATE_TALK": "Template talk",
      "MEDIAWIKI_TALK": "MediaWiki talk",
      "FILE_TALK": "File talk",
      "USER": "User",
      "CATEGORY": "Category"
    },
    "et": {
      "TALK": "Arutelu",
      "TEMPLATE": "Mall",
      "WIKIPEDIA_TALK": "Vikipeedia arutelu",
      "ARTICLE": "",
      "WIKIPEDIA": "Vikipeedia",
      "HELP_TALK": "Juhendi arutelu",
      "FILE": "Pilt",
      "HELP": "Juhend",
      "USER_TALK": "Kasutaja arutelu",
      "MEDIAWIKI": "MediaWiki",
      "CATEGORY_TALK": "Kategooria arutelu",
      "TEMPLATE_TALK": "Malli arutelu",
      "MEDIAWIKI_TALK": "MediaWiki arutelu",
      "FILE_TALK": "Pildi arutelu",
      "USER": "Kasutaja",
      "CATEGORY": "Kategooria"
    }
  },
  "proxyName": "{EE9722FB-414C-4D74-82DF-DFA61A052701}",
  "data": "",
  "multitonKey": "{5EE29D1A-584B-4256-87F3-B1AD398D0E67}"
}